"patient_id";"step";"start_date";"end_date"
1;"A";2016-02-26;2016-02-26
1;"C";2016-02-26;2016-03-03
1;"E";2016-03-03;2016-03-04
2;"A";2016-02-28;2016-02-28
2;"C";2016-02-28;2016-03-02
2;"E";2016-03-02;2016-03-03
3;"A";2017-07-13;2017-07-13
3;"D";2017-07-13;2017-07-20
3;"F";2017-07-20;2017-07-22
4;"A";2017-11-17;2017-11-18
4;"C";2017-11-18;2017-11-19
4;"E";2017-11-19;2017-11-21
5;"A";2015-10-14;2015-10-15
5;"B";2015-10-15;2015-10-24
5;"F";2015-10-24;2015-10-25
6;"A";2017-08-22;2017-08-23
6;"D";2017-08-23;2017-08-27
6;"E";2017-08-27;2017-08-28
7;"A";2016-09-25;2016-09-25
7;"D";2016-09-25;2016-09-26
7;"F";2016-09-26;2016-09-27
8;"A";2015-01-03;2015-01-03
8;"C";2015-01-03;2015-01-10
8;"E";2015-01-10;2015-01-11
9;"A";2015-09-09;2015-09-09
9;"C";2015-09-09;2015-09-17
9;"E";2015-09-17;2015-09-20
10;"A";2017-06-19;2017-06-19
10;"C";2017-06-19;2017-06-26
10;"E";2017-06-26;2017-06-29
11;"A";2017-09-02;2017-09-03
11;"C";2017-09-03;2017-09-10
11;"E";2017-09-10;2017-09-14
12;"A";2017-09-01;2017-09-03
12;"C";2017-09-03;2017-09-08
12;"E";2017-09-08;2017-09-10
13;"A";2015-02-16;2015-02-18
13;"C";2015-02-18;2015-02-28
13;"F";2015-02-28;2015-03-02
14;"A";2016-01-18;2016-01-18
14;"D";2016-01-18;2016-01-22
14;"E";2016-01-22;2016-01-27
15;"A";2017-02-20;2017-02-21
15;"C";2017-02-21;2017-02-27
15;"F";2017-02-27;2017-03-03
16;"A";2015-06-29;2015-06-30
16;"C";2015-06-30;2015-07-05
16;"F";2015-07-05;2015-07-07
17;"A";2017-04-15;2017-04-15
17;"D";2017-04-15;2017-04-21
17;"E";2017-04-21;2017-04-24
18;"A";2017-01-07;2017-01-07
18;"B";2017-01-07;2017-01-12
18;"E";2017-01-12;2017-01-16
19;"A";2016-09-04;2016-09-04
19;"C";2016-09-04;2016-09-09
19;"E";2016-09-09;2016-09-10
20;"A";2017-07-26;2017-07-27
20;"D";2017-07-27;2017-08-03
20;"E";2017-08-03;2017-08-04
21;"A";2016-10-30;2016-11-01
21;"D";2016-11-01;2016-11-04
21;"E";2016-11-04;2016-11-08
22;"A";2015-04-23;2015-04-24
22;"D";2015-04-24;2015-05-03
22;"E";2015-05-03;2015-05-05
23;"A";2017-07-07;2017-07-08
23;"D";2017-07-08;2017-07-11
23;"F";2017-07-11;2017-07-14
24;"A";2016-07-05;2016-07-06
24;"C";2016-07-06;2016-07-08
24;"E";2016-07-08;2016-07-10
25;"A";2016-11-10;2016-11-12
25;"C";2016-11-12;2016-11-14
25;"E";2016-11-14;2016-11-15
26;"A";2017-02-27;2017-02-27
26;"D";2017-02-27;2017-03-06
26;"E";2017-03-06;2017-03-11
27;"A";2017-02-11;2017-02-11
27;"D";2017-02-11;2017-02-16
27;"E";2017-02-16;2017-02-20
28;"A";2015-01-17;2015-01-17
28;"D";2015-01-17;2015-01-23
28;"E";2015-01-23;2015-01-27
29;"A";2016-01-02;2016-01-03
29;"B";2016-01-03;2016-01-05
29;"E";2016-01-05;2016-01-10
30;"A";2016-06-08;2016-06-10
30;"D";2016-06-10;2016-06-15
30;"F";2016-06-15;2016-06-17
31;"A";2015-11-16;2015-11-17
31;"C";2015-11-17;2015-11-20
31;"E";2015-11-20;2015-11-24
32;"A";2015-09-05;2015-09-07
32;"D";2015-09-07;2015-09-15
32;"F";2015-09-15;2015-09-18
33;"A";2015-08-08;2015-08-09
33;"D";2015-08-09;2015-08-18
33;"F";2015-08-18;2015-08-23
34;"A";2016-02-27;2016-02-28
34;"D";2016-02-28;2016-03-05
34;"E";2016-03-05;2016-03-09
35;"A";2016-08-03;2016-08-05
35;"D";2016-08-05;2016-08-13
35;"E";2016-08-13;2016-08-18
36;"A";2016-04-06;2016-04-07
36;"C";2016-04-07;2016-04-10
36;"E";2016-04-10;2016-04-11
37;"A";2016-03-03;2016-03-04
37;"B";2016-03-04;2016-03-06
37;"E";2016-03-06;2016-03-09
38;"A";2015-10-30;2015-11-01
38;"D";2015-11-01;2015-11-11
38;"E";2015-11-11;2015-11-15
39;"A";2016-08-08;2016-08-10
39;"D";2016-08-10;2016-08-20
39;"E";2016-08-20;2016-08-22
40;"A";2016-12-15;2016-12-16
40;"C";2016-12-16;2016-12-22
40;"E";2016-12-22;2016-12-25
41;"A";2017-05-11;2017-05-12
41;"B";2017-05-12;2017-05-14
41;"F";2017-05-14;2017-05-16
42;"A";2015-02-27;2015-02-28
42;"B";2015-02-28;2015-03-09
42;"F";2015-03-09;2015-03-12
43;"A";2016-08-07;2016-08-08
43;"D";2016-08-08;2016-08-15
43;"E";2016-08-15;2016-08-19
44;"A";2015-03-07;2015-03-09
44;"C";2015-03-09;2015-03-15
44;"F";2015-03-15;2015-03-19
45;"A";2016-12-14;2016-12-14
45;"D";2016-12-14;2016-12-18
45;"E";2016-12-18;2016-12-20
46;"A";2016-03-17;2016-03-19
46;"B";2016-03-19;2016-03-27
46;"E";2016-03-27;2016-03-28
47;"A";2017-05-30;2017-06-01
47;"C";2017-06-01;2017-06-08
47;"E";2017-06-08;2017-06-10
48;"A";2017-05-25;2017-05-25
48;"D";2017-05-25;2017-05-30
48;"E";2017-05-30;2017-06-02
49;"A";2017-01-20;2017-01-21
49;"C";2017-01-21;2017-01-23
49;"F";2017-01-23;2017-01-27
50;"A";2016-04-26;2016-04-28
50;"D";2016-04-28;2016-05-02
50;"E";2016-05-02;2016-05-06
51;"A";2015-09-14;2015-09-16
51;"C";2015-09-16;2015-09-18
51;"F";2015-09-18;2015-09-19
52;"A";2016-05-06;2016-05-06
52;"B";2016-05-06;2016-05-11
52;"E";2016-05-11;2016-05-13
53;"A";2016-08-01;2016-08-02
53;"D";2016-08-02;2016-08-09
53;"E";2016-08-09;2016-08-12
54;"A";2017-12-21;2017-12-21
54;"C";2017-12-21;2017-12-23
54;"F";2017-12-23;2017-12-27
55;"A";2016-12-19;2016-12-19
55;"C";2016-12-19;2016-12-25
55;"E";2016-12-25;2016-12-28
56;"A";2015-10-27;2015-10-28
56;"C";2015-10-28;2015-11-02
56;"E";2015-11-02;2015-11-03
57;"A";2015-02-06;2015-02-07
57;"C";2015-02-07;2015-02-15
57;"E";2015-02-15;2015-02-20
58;"A";2015-06-24;2015-06-26
58;"D";2015-06-26;2015-06-29
58;"E";2015-06-29;2015-06-30
59;"A";2016-09-14;2016-09-15
59;"C";2016-09-15;2016-09-17
59;"E";2016-09-17;2016-09-22
60;"A";2017-01-13;2017-01-13
60;"D";2017-01-13;2017-01-20
60;"F";2017-01-20;2017-01-22
61;"A";2017-04-16;2017-04-17
61;"C";2017-04-17;2017-04-27
61;"F";2017-04-27;2017-04-30
62;"A";2015-09-28;2015-09-30
62;"C";2015-09-30;2015-10-05
62;"E";2015-10-05;2015-10-09
63;"A";2015-10-11;2015-10-12
63;"B";2015-10-12;2015-10-16
63;"E";2015-10-16;2015-10-21
64;"A";2017-03-09;2017-03-09
64;"D";2017-03-09;2017-03-15
64;"E";2017-03-15;2017-03-19
65;"A";2016-11-03;2016-11-03
65;"D";2016-11-03;2016-11-09
65;"F";2016-11-09;2016-11-12
66;"A";2016-10-09;2016-10-09
66;"C";2016-10-09;2016-10-11
66;"F";2016-10-11;2016-10-13
67;"A";2017-12-23;2017-12-23
67;"C";2017-12-23;2017-12-31
67;"F";2017-12-31;2018-01-01
68;"A";2016-04-28;2016-04-30
68;"D";2016-04-30;2016-05-04
68;"E";2016-05-04;2016-05-07
69;"A";2016-02-07;2016-02-08
69;"C";2016-02-08;2016-02-09
69;"F";2016-02-09;2016-02-11
70;"A";2017-08-18;2017-08-20
70;"C";2017-08-20;2017-08-23
70;"E";2017-08-23;2017-08-26
71;"A";2017-07-17;2017-07-18
71;"C";2017-07-18;2017-07-27
71;"E";2017-07-27;2017-07-29
72;"A";2015-08-19;2015-08-20
72;"C";2015-08-20;2015-08-25
72;"E";2015-08-25;2015-08-29
73;"A";2017-11-19;2017-11-19
73;"D";2017-11-19;2017-11-29
73;"E";2017-11-29;2017-12-01
74;"A";2017-10-13;2017-10-13
74;"D";2017-10-13;2017-10-15
74;"F";2017-10-15;2017-10-20
75;"A";2016-09-03;2016-09-05
75;"B";2016-09-05;2016-09-12
75;"E";2016-09-12;2016-09-15
76;"A";2017-09-10;2017-09-11
76;"B";2017-09-11;2017-09-20
76;"F";2017-09-20;2017-09-22
77;"A";2015-09-27;2015-09-29
77;"B";2015-09-29;2015-10-05
77;"F";2015-10-05;2015-10-09
78;"A";2015-09-01;2015-09-03
78;"D";2015-09-03;2015-09-10
78;"F";2015-09-10;2015-09-12
79;"A";2015-01-02;2015-01-03
79;"D";2015-01-03;2015-01-08
79;"E";2015-01-08;2015-01-12
80;"A";2015-01-23;2015-01-25
80;"D";2015-01-25;2015-01-30
80;"E";2015-01-30;2015-02-03
81;"A";2015-12-28;2015-12-28
81;"D";2015-12-28;2016-01-02
81;"F";2016-01-02;2016-01-05
82;"A";2015-12-21;2015-12-22
82;"B";2015-12-22;2015-12-28
82;"F";2015-12-28;2016-01-01
83;"A";2016-10-05;2016-10-07
83;"C";2016-10-07;2016-10-13
83;"E";2016-10-13;2016-10-15
84;"A";2017-09-13;2017-09-14
84;"D";2017-09-14;2017-09-21
84;"E";2017-09-21;2017-09-24
85;"A";2016-06-24;2016-06-25
85;"C";2016-06-25;2016-06-26
85;"F";2016-06-26;2016-06-30
86;"A";2017-07-27;2017-07-28
86;"D";2017-07-28;2017-08-06
86;"F";2017-08-06;2017-08-11
87;"A";2016-03-05;2016-03-06
87;"B";2016-03-06;2016-03-07
87;"E";2016-03-07;2016-03-11
88;"A";2017-02-12;2017-02-14
88;"B";2017-02-14;2017-02-21
88;"E";2017-02-21;2017-02-22
89;"A";2016-04-03;2016-04-03
89;"D";2016-04-03;2016-04-08
89;"E";2016-04-08;2016-04-12
90;"A";2016-11-21;2016-11-23
90;"D";2016-11-23;2016-11-27
90;"E";2016-11-27;2016-12-01
91;"A";2015-08-12;2015-08-13
91;"C";2015-08-13;2015-08-18
91;"F";2015-08-18;2015-08-20
92;"A";2016-05-11;2016-05-11
92;"D";2016-05-11;2016-05-19
92;"E";2016-05-19;2016-05-22
93;"A";2016-05-21;2016-05-22
93;"B";2016-05-22;2016-05-25
93;"E";2016-05-25;2016-05-29
94;"A";2017-11-09;2017-11-10
94;"C";2017-11-10;2017-11-11
94;"F";2017-11-11;2017-11-15
95;"A";2017-05-24;2017-05-26
95;"D";2017-05-26;2017-06-02
95;"E";2017-06-02;2017-06-05
96;"A";2016-03-02;2016-03-04
96;"C";2016-03-04;2016-03-10
96;"F";2016-03-10;2016-03-14
97;"A";2017-12-14;2017-12-14
97;"D";2017-12-14;2017-12-19
97;"E";2017-12-19;2017-12-22
98;"A";2017-04-20;2017-04-21
98;"C";2017-04-21;2017-04-24
98;"F";2017-04-24;2017-04-26
99;"A";2017-04-03;2017-04-03
99;"C";2017-04-03;2017-04-11
99;"F";2017-04-11;2017-04-13
100;"A";2017-11-05;2017-11-05
100;"C";2017-11-05;2017-11-15
100;"E";2017-11-15;2017-11-17
