visit_id;patient_id;start_date;end_date;hospital_id
1;1;20200101;20200110;1
2;2;20200101;20200112;1
3;2;20200120;20200125;1
4;3;20200101;20200108;1
5;3;20200202;20200204;1
6;3;20200301;20200304;1
7;4;20200102;20200103;1
8;5;20200102;20200102;1
9;6;20200102;20200110;1
10;7;20200102;20200104;1
11;7;20200110;20200120;1
12;8;20200103;20200105;1
13;9;20200205;20200210;1
14;10;20200103;20200103;1
15;11;20200104;20200105;1
16;12;20200106;20200107;1
17;13;20200106;20200108;1
18;14;20200106;20200108;1
19;14;20200220;20200221;1
20;15;20200106;20200108;1
21;16;20200106;20200108;1
22;17;20200106;20200108;1
23;18;20200106;20200109;1
24;19;20200106;20200109;1
25;20;20200107;20200109;1
26;21;20200107;20200109;1
27;22;20200117;20200119;1
28;22;20200207;20200219;1
29;23;20200117;20200119;1
30;24;20200117;20200120;1
31;25;20200117;20200120;1
32;26;20200118;20200120;1
33;27;20200118;20200122;1
34;28;20200130;20200131;1
35;28;20200205;20200206;1
36;29;20200130;20200131;1
37;30;20200130;20200131;1
38;30;20200205;20200206;1
39;30;20200403;20200420;1
40;30;20200503;20200510;1
